<svg
  viewBox="0 0 200 500"
  xmlns="http://www.w3.org/2000/svg">

  <rect x="30" y="25" width="20" height="30"/>
    <polygon
    points="
       0,40
      30,0
      30,80
    "
  />

  <rect x="20" y="235" width="30" height="30"/>

  <rect x="30" y="445" width="20" height="30"/>
    <polygon
    points="
       0,460
      30,425
      30,500
    "
  />

  <rect x="50" y="25" width="35" height="450"/>

  <rect x="85" y="25" width="20" height="30"/>
    <polygon
    points="
      135,40
      105,0
      105,80
    "
  />

  <rect x="85" y="235" width="85" height="30"/>
  <polygon
    points="
      200,250
      170,210
      170,290
    "
  />

  <rect x="85" y="445" width="20" height="30"/>
    <polygon
    points="
      135,460
      105,425
      105,500
    "
  />

</svg>